# XTCOEFF: NOAO/IRAF V2.11.3EXPORT valdes/jannuzi  17-Feb-2001
# Used Images obj031 and obj032 from T_E night 
#
im01	im02	0.00137
im02
im03	im04	0.00264
im04
im05
im06	im05	0.00161
im07
im08	im07	0.00077
